Assignment4
…
pertalk_pertopic_prob <- tidy(models[[optimal_idx]], matrix = "gamma")

top_topics_in_document <- pertalk_pertopic_prob %>%
  group_by(document) %>%
  top_n(10, gamma) %>%
  ungroup() %>%
  arrange(document, -gamma)
top_topics_in_document #Document 1 is 10% topic 80, 6% topic 46 etc

## # A tibble: 23,894 x 3
##    document topic  gamma
##    <chr>    <int>  <dbl>
##  1 1           41 0.126 
##  2 1           53 0.0946
##  3 1            4 0.0636
##  4 1           22 0.0551
##  5 1           27 0.0551
##  6 1           42 0.0410
##  7 1           55 0.0410
##  8 1           48 0.0297
##  9 1           17 0.0268
## 10 1           76 0.0268
## # ... with 23,884 more rows
…
